combine enums into one?
    {
        enum cards{
            //diamonds (bunch of enums)
            //hearts (bunch of enums i.e: ace of hearts, one of hearts)
            etc
        }

    }
enum for rank, enum for suit?
    {

        enum rank
            one two three etc
        enum suit 
            hearts diamonds etc
    }
====================================================================================
random card method with a validator that checks if the new card is in an array of current cards, 
if it is: call the method again. if its not: add it to the array (arrayList)
    arrayList.contains() can be used here
random method in suit and rank
===================================================================================
columns on the table can be 2D array list
=================================================================================
Tableau has 28 cards

suit[] = hearts, diamonds, spades, clubs
rank[] = ace, two ,three ......

for( int i...)
    for( suit s : suit)
        for(rank r : rank)
        deck[i] = new card(s,r)
        
